<svg width="32" height="32" viewBox="0 0 32 32" fill="none" xmlns="http://www.w3.org/2000/svg">
<path d="M16 20.5C18.41 20.5 20.3636 18.4853 20.3636 16V8.5C20.3636 6.01469 18.41 4 16 4C13.59 4 11.6364 6.01469 11.6364 8.5V16C11.6364 18.4853 13.59 20.5 16 20.5ZM23.2727 13H22.5455C22.1436 13 21.8182 13.3356 21.8182 13.75V16C21.8182 19.5063 18.8868 22.3197 15.4186 21.9709C12.3959 21.6667 10.1818 18.8645 10.1818 15.7328V13.75C10.1818 13.3356 9.85636 13 9.45455 13H8.72727C8.32545 13 8 13.3356 8 13.75V15.6325C8 19.8344 10.9077 23.5802 14.9091 24.1492V25.75H12.3636C11.9618 25.75 11.6364 26.0856 11.6364 26.5V27.25C11.6364 27.6644 11.9618 28 12.3636 28H19.6364C20.0382 28 20.3636 27.6644 20.3636 27.25V26.5C20.3636 26.0856 20.0382 25.75 19.6364 25.75H17.0909V24.167C20.9868 23.6158 24 20.1672 24 16V13.75C24 13.3356 23.6745 13 23.2727 13Z" fill="white"/>
</svg>
