%YAML 1.1
%TAG !u! tag:unity3d.com,2011:
--- !u!114 &11400000
MonoBehaviour:
  m_ObjectHideFlags: 0
  m_CorrespondingSourceObject: {fileID: 0}
  m_PrefabInstance: {fileID: 0}
  m_PrefabAsset: {fileID: 0}
  m_GameObject: {fileID: 0}
  m_Enabled: 1
  m_EditorHideFlags: 0
  m_Script: {fileID: 11500000, guid: bbb281ee3bf0b054c82ac2347e9e782c, type: 3}
  m_Name: Shader
  m_EditorClassIdentifier: 
  m_GroupName: Shader
  m_Data:
    m_SerializedData: []
  m_GUID: e782b91f880fc3247b01e2bea9914907
  m_SerializeEntries:
  - m_GUID: 4a714f43e1bfe254e9853317c1602a7a
    m_Address: Assets/_VRToonShaderProject/FastVRToonShaderURP/FastVRToonShaderURP(With
      Outline).shader
    m_ReadOnly: 0
    m_SerializedLabels: []
    FlaggedDuringContentUpdateRestriction: 0
  m_ReadOnly: 0
  m_Settings: {fileID: 11400000, guid: 80ec15621d1368840a78697859511288, type: 2}
  m_SchemaSet:
    m_Schemas:
    - {fileID: 11400000, guid: 04f45e411715d8245a3620528610fe7c, type: 2}
    - {fileID: 11400000, guid: 2dcf6c836182fbf408acbf2094769870, type: 2}
