%YAML 1.1
%TAG !u! tag:unity3d.com,2011:
--- !u!114 &11400000
MonoBehaviour:
  m_ObjectHideFlags: 0
  m_CorrespondingSourceObject: {fileID: 0}
  m_PrefabInstance: {fileID: 0}
  m_PrefabAsset: {fileID: 0}
  m_GameObject: {fileID: 0}
  m_Enabled: 1
  m_EditorHideFlags: 0
  m_Script: {fileID: 11500000, guid: e7dcdedfc9ce3244d8b4f2637153efec, type: 3}
  m_Name: ZZZ_Ben
  m_EditorClassIdentifier: 
  id: ZZZ_Ben
  Name: Mosu
  Description: Your AI Assistant
  source: 2
  spawnedPrefab:
    m_AssetGUID: c3898b0a623a2614ba9adc3cf60ddc4a
    m_SubObjectName: 
    m_SubObjectType: 
    m_EditorAssetChanged: 0
  portrait: {fileID: 21300000, guid: 20d42b55cbaa75f49b37a6c84d2bd953, type: 3}
  voices:
  - fable
  - SzLkQWypL87m7lvYoNAV
  voiceOpenaI: fable
  narratorVoiceID: u3DlsS5O1qiI9XqFN1rb
  narratorVoiceOpenAIID: fable
  colorCode: {r: 0.9843138, g: 0.38823533, b: 0.28235295, a: 1}
  lightColor: {r: 0.8113208, g: 0.8067284, b: 0.8067284, a: 0.41960785}
  background: {fileID: 2800000, guid: 88f837f8a471d6d45b119f6549beebca, type: 3}
