%YAML 1.1
%TAG !u! tag:unity3d.com,2011:
--- !u!114 &11400000
MonoBehaviour:
  m_ObjectHideFlags: 0
  m_CorrespondingSourceObject: {fileID: 0}
  m_PrefabInstance: {fileID: 0}
  m_PrefabAsset: {fileID: 0}
  m_GameObject: {fileID: 0}
  m_Enabled: 1
  m_EditorHideFlags: 0
  m_Script: {fileID: 11500000, guid: cca60ef64ec5cb341b499ddd7369ff3a, type: 3}
  m_Name: Default_IdleAnimation
  m_EditorClassIdentifier: 
  animations:
  - key: 00000000
    clip: []
    weightedClips:
    - weight: 1
      clip:
        _FadeDuration: 1.6890002
        _Events:
          _NormalizedTimes: []
          _Callbacks: []
          _Names: []
        _Clip: {fileID: 7400000, guid: 0d03f9cbe35ae0f4bb7f8981266e4384, type: 2}
        _Speed: 1
        _NormalizedStartTime: NaN
