%YAML 1.1
%TAG !u! tag:unity3d.com,2011:
--- !u!21 &2100000
Material:
  serializedVersion: 8
  m_ObjectHideFlags: 0
  m_CorrespondingSourceObject: {fileID: 0}
  m_PrefabInstance: {fileID: 0}
  m_PrefabAsset: {fileID: 0}
  m_Name: body
  m_Shader: {fileID: 4800000, guid: 6459b2db96a08ca41b0f9b39dc7ad59e, type: 3}
  m_Parent: {fileID: 0}
  m_ModifiedSerializedProperties: 0
  m_ValidKeywords:
  - N_F_EAL_ON
  - N_F_O_ON
  - N_F_RDC_ON
  - N_F_RELGI_ON
  - N_F_SS_ON
  - N_F_TRANSAFFSHA_ON
  m_InvalidKeywords:
  - N_F_TRANSAFFSHA
  - _CUSTOMLIGHTDIRECTIONFOLLOWOBJECTROTATION_OFF
  - _GIFLATSHADE_OFF
  - _GLOSSTEXTUREFOLLOWOBJECTROTATION_OFF
  - _LIGHTAFFECTOUTLINECOLOR_OFF
  - _LIGHTAFFECTRIMLIGHTCOLOR_OFF
  - _LIGHTAFFECTSHADOW_OFF
  - _LIGHTFALLOFFAFFECTSHADOWT_OFF
  - _LIGIGNOYNORDIR_OFF
  - _MCIALO_OFF
  - _MIXMAINTEXTOOUTLINE_OFF
  - _MVCOL_OFF
  - _OUTLINEWIDTHAFFECTEDBYVIEWDISTANCE_OFF
  - _PSGLOTEX_OFF
  - _SELFSHADOWAFFECTEDBYLIGHTSHADOWSTRENGTH_OFF
  - _SELFSHADOWSHADOWTATVIEWDIRECTION_OFF
  - _SHOWNORMAL_OFF
  - _SPECMODE_OFF
  - _STIL_OFF
  - _TEXTUREPATTERNSTYLE_OFF
  - _USESECONDARYCUTOUT_OFF
  - _VERTEXCOLORBLUEAFFECTOUTLINEWITDH_OFF
  - _VERTEXCOLORGREENCONTROLSELFSHADOWTHRESHOLD_OFF
  - _VERTEXCOLORREDCONTROLSMOOTHOBJECTNORMAL_OFF
  m_LightmapFlags: 0
  m_EnableInstancingVariants: 0
  m_DoubleSidedGI: 0
  m_CustomRenderQueue: -1
  stringTagMap: {}
  disabledShaderPasses: []
  m_LockedProperties: 
  m_SavedProperties:
    serializedVersion: 3
    m_TexEnvs:
    - _EnvMapSampler:
        m_Texture: {fileID: 2800000, guid: 763c5d30206d1d54a9b49b3309e37fe1, type: 3}
        m_Scale: {x: 1, y: 1}
        m_Offset: {x: 0, y: 0}
    - _FReflection:
        m_Texture: {fileID: 0}
        m_Scale: {x: 1, y: 1}
        m_Offset: {x: 0, y: 0}
    - _FalloffSampler:
        m_Texture: {fileID: 2800000, guid: cc8f70f2ec571e9478efa98c041cde7b, type: 3}
        m_Scale: {x: 1, y: 1}
        m_Offset: {x: 0, y: 0}
    - _GlossTexture:
        m_Texture: {fileID: 0}
        m_Scale: {x: 1, y: 1}
        m_Offset: {x: 0, y: 0}
    - _MCap:
        m_Texture: {fileID: 0}
        m_Scale: {x: 1, y: 1}
        m_Offset: {x: 0, y: 0}
    - _MCapMask:
        m_Texture: {fileID: 0}
        m_Scale: {x: 1, y: 1}
        m_Offset: {x: 0, y: 0}
    - _MainTex:
        m_Texture: {fileID: 2800000, guid: f9c6074c5a78e71448f9efd3013cadda, type: 3}
        m_Scale: {x: 1, y: 1}
        m_Offset: {x: 0, y: 0}
    - _MaskGloss:
        m_Texture: {fileID: 0}
        m_Scale: {x: 1, y: 1}
        m_Offset: {x: 0, y: 0}
    - _MaskReflection:
        m_Texture: {fileID: 0}
        m_Scale: {x: 1, y: 1}
        m_Offset: {x: 0, y: 0}
    - _MaskSelfLit:
        m_Texture: {fileID: 0}
        m_Scale: {x: 1, y: 1}
        m_Offset: {x: 0, y: 0}
    - _MaskTransparency:
        m_Texture: {fileID: 0}
        m_Scale: {x: 1, y: 1}
        m_Offset: {x: 0, y: 0}
    - _NormalMap:
        m_Texture: {fileID: 0}
        m_Scale: {x: 1, y: 1}
        m_Offset: {x: 0, y: 0}
    - _NormalMapSampler:
        m_Texture: {fileID: 2800000, guid: 3a3c0acc807e9264ca0b32602a928a9a, type: 3}
        m_Scale: {x: 1, y: 1}
        m_Offset: {x: 0, y: 0}
    - _OutlineWidthControl:
        m_Texture: {fileID: 0}
        m_Scale: {x: 1, y: 1}
        m_Offset: {x: 0, y: 0}
    - _PTexture:
        m_Texture: {fileID: 0}
        m_Scale: {x: 1, y: 1}
        m_Offset: {x: 0, y: 0}
    - _RimLightSampler:
        m_Texture: {fileID: 2800000, guid: a18067604964b5a4d8fd5552ed0d789e, type: 3}
        m_Scale: {x: 1, y: 1}
        m_Offset: {x: 0, y: 0}
    - _SecondaryCutout:
        m_Texture: {fileID: 0}
        m_Scale: {x: 1, y: 1}
        m_Offset: {x: 0, y: 0}
    - _ShadowColorTexture:
        m_Texture: {fileID: 0}
        m_Scale: {x: 1, y: 1}
        m_Offset: {x: 0, y: 0}
    - _ShadowT:
        m_Texture: {fileID: 0}
        m_Scale: {x: 1, y: 1}
        m_Offset: {x: 0, y: 0}
    - _SpecularReflectionSampler:
        m_Texture: {fileID: 2800000, guid: 7ae1142e9b3a72048960dd9561e0e0d9, type: 3}
        m_Scale: {x: 1, y: 1}
        m_Offset: {x: 0, y: 0}
    m_Ints: []
    m_Floats:
    - _AlphaBaseCutout: 1
    - _BleModDest: 0
    - _BleModSour: 1
    - _Compa: 4
    - _ComputeMeshIndex: 0
    - _Culling: 2
    - _CustomLightDirectionFollowObjectRotation: 0
    - _CustomLightDirectionIntensity: 0
    - _Cutout: 0
    - _DepthThreshold: 900
    - _DirectionalLightIntensity: 0
    - _DoubleSidedOutline: 1
    - _DynamicNoisyOutline: 0
    - _EdgeThickness: 0.5
    - _EnvironmentalLightingIntensity: 1
    - _FalloffPower: 0.3
    - _FarDistanceMaxWidth: 10
    - _GIFlatShade: 0
    - _GIShadeThreshold: 0
    - _GlossColorPower: 10
    - _GlossIntensity: 1
    - _GlossSoftness: 0
    - _GlossTextureFollowLight: 0
    - _GlossTextureFollowObjectRotation: 0
    - _GlossTextureRotate: 0
    - _GlossTextureSoftness: 0
    - _Glossiness: 0.6
    - _Glow_Edge_Width: 1
    - _HighlightColorPower: 1
    - _LigIgnoYNorDir: 0
    - _LightAffectOutlineColor: 0
    - _LightAffectRimLightColor: 0
    - _LightAffectShadow: 0
    - _LightFalloffAffectShadowT: 0
    - _LightFalloffSoftness: 1
    - _LightIntensity: 1
    - _MCIALO: 0
    - _MCapIntensity: 1
    - _MVCOL: 0
    - _MaiColPo: 0.8
    - _MaxFadDistance: 2
    - _MinFadDistance: 0
    - _MixMainTexToOutline: 0
    - _N_F_CA: 0
    - _N_F_CLD: 0
    - _N_F_CO: 0
    - _N_F_COEDGL: 0
    - _N_F_DCS: 0
    - _N_F_DDMD: 0
    - _N_F_EAL: 1
    - _N_F_ESSAO: 0
    - _N_F_FR: 0
    - _N_F_GLO: 0
    - _N_F_GLOT: 0
    - _N_F_HDLS: 0
    - _N_F_HPSS: 0
    - _N_F_MC: 0
    - _N_F_MSSOLTFO: 0
    - _N_F_NFD: 0
    - _N_F_NLASOBF: 0
    - _N_F_NM: 0
    - _N_F_O: 1
    - _N_F_OFLMB: 0
    - _N_F_PT: 0
    - _N_F_R: 0
    - _N_F_RDC: 1
    - _N_F_RL: 0
    - _N_F_SCT: 0
    - _N_F_SL: 0
    - _N_F_SON: 0
    - _N_F_SS: 1
    - _N_F_ST: 0
    - _N_F_STIAL: 0
    - _N_F_STIS: 0
    - _NoisyOutlineIntensity: 0
    - _NormalMapIntensity: 1
    - _Opacity: 1
    - _Oper: 0
    - _OutlineExtrudeMethod: 0
    - _OutlineWidth: 0.5
    - _OutlineWidthAffectedByViewDistance: 0
    - _OutlineZPostionInCamera: 0
    - _OverallShadowColorPower: 1
    - _PSGLOTEX: 0
    - _PTexturePower: 1
    - _PointSpotlightIntensity: 0
    - _RELG: 1
    - _ReduSha: 0.5
    - _RefMetallic: 0
    - _RefVal: 0
    - _ReflectionIntensity: 0
    - _ReflectionRoughtness: 0
    - _RimLigInt: 1
    - _RimLightColorPower: 10
    - _RimLightInLight: 1
    - _RimLightSoftness: 1
    - _RimLightUnfill: 1.5
    - _SPECIN: 1
    - _SPECMODE: 0
    - _STIL: 0
    - _Saturation: 1
    - _SelfLitHighContrast: 1
    - _SelfLitIntensity: 0
    - _SelfLitPower: 2
    - _SelfShadowAffectedByLightShadowStrength: 0
    - _SelfShadowHardness: 1
    - _SelfShadowRealTimeShadowColorPower: 1
    - _SelfShadowRealtimeShadowIntensity: 1
    - _SelfShadowShadowTAtViewDirection: 0
    - _SelfShadowThreshold: 0.93
    - _ShadowColorTexturePower: 0
    - _ShadowHardness: 0
    - _ShadowTColorPower: 1
    - _ShadowTHardness: 1
    - _ShadowTIntensity: 1
    - _ShadowTLightThreshold: 50
    - _ShadowTShadowThreshold: 0
    - _ShowInAmbientLightShadowIntensity: 1
    - _ShowInAmbientLightShadowThreshold: 0.4
    - _ShowNormal: 0
    - _SimTrans: 0
    - _SkinMatrixIndex: 0
    - _SmoothObjectNormal: 0
    - _SpecularPower: 20
    - _TEXMCOLINT: 1
    - _TRANSMODE: 0
    - _TexturePatternStyle: 0
    - _TransAffSha: 1
    - _TransparentThreshold: 0
    - _UseSecondaryCutout: 0
    - _UseTLB: 0
    - _VertexColorBlueAffectOutlineWitdh: 0
    - _VertexColorGreenControlSelfShadowThreshold: 0
    - _VertexColorRedControlSmoothObjectNormal: 0
    - _ZWrite: 1
    m_Colors:
    - _Color: {r: 1, g: 1, b: 1, a: 1}
    - _CustomLightDirection: {r: 0, g: 0, b: 10, a: 0}
    - _GlossColor: {r: 1, g: 1, b: 1, a: 1}
    - _Glow_Color: {r: 1, g: 1, b: 1, a: 1}
    - _HighlightColor: {r: 1, g: 1, b: 1, a: 1}
    - _MainColor: {r: 1, g: 1, b: 1, a: 1}
    - _OutlineColor: {r: 0, g: 0, b: 0, a: 1}
    - _OutlineOffset: {r: 0, g: 0, b: 0, a: 1}
    - _OverallShadowColor: {r: 0, g: 0, b: 0, a: 1}
    - _PTCol: {r: 0, g: 0, b: 0, a: 1}
    - _RimLightColor: {r: 1, g: 1, b: 1, a: 1}
    - _SSAOColor: {r: 0, g: 0, b: 0, a: 0}
    - _SelfLitColor: {r: 1, g: 1, b: 1, a: 1}
    - _SelfShadowRealTimeShadowColor: {r: 1, g: 1, b: 1, a: 1}
    - _ShadowColor: {r: 0.8, g: 0.8, b: 1, a: 1}
    - _ShadowTColor: {r: 1, g: 1, b: 1, a: 1}
    - _XYZPosition: {r: 0, g: 0, b: 0, a: 0}
  m_BuildTextureStacks: []
