%YAML 1.1
%TAG !u! tag:unity3d.com,2011:
--- !u!114 &11400000
MonoBehaviour:
  m_ObjectHideFlags: 0
  m_CorrespondingSourceObject: {fileID: 0}
  m_PrefabInstance: {fileID: 0}
  m_PrefabAsset: {fileID: 0}
  m_GameObject: {fileID: 0}
  m_Enabled: 1
  m_EditorHideFlags: 0
  m_Script: {fileID: 11500000, guid: cca60ef64ec5cb341b499ddd7369ff3a, type: 3}
  m_Name: Mario_NoResult
  m_EditorClassIdentifier: 
  animations:
  - key: 00000000
    weightedClips:
    - weight: 0.5
      clip:
        _FadeDuration: 0.25
        _Events:
          _NormalizedTimes: []
          _Callbacks: []
          _Names: []
        _Clip: {fileID: 7400000, guid: e8f480b04d5706e439e972197ea66b45, type: 2}
        _Speed: 1
        _NormalizedStartTime: NaN
