%YAML 1.1
%TAG !u! tag:unity3d.com,2011:
--- !u!114 &11400000
MonoBehaviour:
  m_ObjectHideFlags: 0
  m_CorrespondingSourceObject: {fileID: 0}
  m_PrefabInstance: {fileID: 0}
  m_PrefabAsset: {fileID: 0}
  m_GameObject: {fileID: 0}
  m_Enabled: 1
  m_EditorHideFlags: 0
  m_Script: {fileID: 11500000, guid: cca60ef64ec5cb341b499ddd7369ff3a, type: 3}
  m_Name: Mario_GoodByeAnimation
  m_EditorClassIdentifier: 
  animations:
  - key: 00000000
    clip: []
    weightedClips:
    - weight: 1
      clip:
        _FadeDuration: 0.25
        _Events:
          _NormalizedTimes: []
          _Callbacks: []
          _Names: []
        _Clip: {fileID: 7400000, guid: b93e30b9e9ade49b9a4ed1c1e805072e, type: 2}
        _Speed: 1
        _NormalizedStartTime: NaN
    - weight: 1
      clip:
        _FadeDuration: 0.25
        _Events:
          _NormalizedTimes: []
          _Callbacks: []
          _Names: []
        _Clip: {fileID: 7400000, guid: 4c7e83fa27eb04b95bf0ba6b45c8b61d, type: 2}
        _Speed: 1
        _NormalizedStartTime: NaN
    - weight: 1
      clip:
        _FadeDuration: 0.25
        _Events:
          _NormalizedTimes: []
          _Callbacks: []
          _Names: []
        _Clip: {fileID: 7400000, guid: 703125feb47224cb681d2138fe09fcca, type: 2}
        _Speed: 1
        _NormalizedStartTime: NaN
