{
  "dependencies": {
    "com.github-glitchenzo.nugetforunity": {
      "version": "4.0.2",
      "depth": 0,
      "source": "registry",
      "dependencies": {},
      "url": "https://package.openupm.com"
    },
    "com.singularitygroup.hotreload": {
      "version": "file:com.singularitygroup.hotreload",
      "depth": 0,
      "source": "embedded",
      "dependencies": {
        "com.unity.ugui": "1.0.0",
        "com.unity.modules.unitywebrequest": "1.0.0"
      }
    },
    "com.unity.addressables": {
      "version": "1.21.20",
      "depth": 0,
      "source": "registry",
      "dependencies": {
        "com.unity.scriptablebuildpipeline": "1.21.22",
        "com.unity.modules.assetbundle": "1.0.0",
        "com.unity.modules.imageconversion": "1.0.0",
        "com.unity.modules.jsonserialize": "1.0.0",
        "com.unity.modules.unitywebrequest": "1.0.0",
        "com.unity.modules.unitywebrequestassetbundle": "1.0.0"
      },
      "url": "https://packages.unity.com"
    },
    "com.unity.burst": {
      "version": "1.8.9",
      "depth": 1,
      "source": "registry",
      "dependencies": {
        "com.unity.mathematics": "1.2.1"
      },
      "url": "https://packages.unity.com"
    },
    "com.unity.cinemachine": {
      "version": "2.9.7",
      "depth": 0,
      "source": "registry",
      "dependencies": {
        "com.unity.test-framework": "1.1.31"
      },
      "url": "https://packages.unity.com"
    },
    "com.unity.collab-proxy": {
      "version": "2.2.0",
      "depth": 0,
      "source": "registry",
      "dependencies": {},
      "url": "https://packages.unity.com"
    },
    "com.unity.collections": {
      "version": "2.2.1",
      "depth": 0,
      "source": "registry",
      "dependencies": {
        "com.unity.burst": "1.8.8",
        "com.unity.modules.unityanalytics": "1.0.0",
        "com.unity.nuget.mono-cecil": "1.11.4",
        "com.unity.test-framework.performance": "3.0.2"
      },
      "url": "https://packages.unity.com"
    },
    "com.unity.editorcoroutines": {
      "version": "1.0.0",
      "depth": 2,
      "source": "registry",
      "dependencies": {},
      "url": "https://packages.unity.com"
    },
    "com.unity.ext.nunit": {
      "version": "2.0.3",
      "depth": 3,
      "source": "registry",
      "dependencies": {},
      "url": "https://packages.unity.com"
    },
    "com.unity.ide.rider": {
      "version": "3.0.26",
      "depth": 0,
      "source": "registry",
      "dependencies": {
        "com.unity.ext.nunit": "1.0.6"
      },
      "url": "https://packages.unity.com"
    },
    "com.unity.ide.visualstudio": {
      "version": "2.0.22",
      "depth": 0,
      "source": "registry",
      "dependencies": {
        "com.unity.test-framework": "1.1.9"
      },
      "url": "https://packages.unity.com"
    },
    "com.unity.ide.vscode": {
      "version": "1.2.5",
      "depth": 0,
      "source": "registry",
      "dependencies": {},
      "url": "https://packages.unity.com"
    },
    "com.unity.mathematics": {
      "version": "1.2.6",
      "depth": 1,
      "source": "registry",
      "dependencies": {},
      "url": "https://packages.unity.com"
    },
    "com.unity.nuget.mono-cecil": {
      "version": "1.11.4",
      "depth": 1,
      "source": "registry",
      "dependencies": {},
      "url": "https://packages.unity.com"
    },
    "com.unity.nuget.newtonsoft-json": {
      "version": "3.2.1",
      "depth": 0,
      "source": "registry",
      "dependencies": {},
      "url": "https://packages.unity.com"
    },
    "com.unity.recorder": {
      "version": "4.0.2",
      "depth": 0,
      "source": "registry",
      "dependencies": {
        "com.unity.timeline": "1.0.0"
      },
      "url": "https://packages.unity.com"
    },
    "com.unity.render-pipelines.core": {
      "version": "14.0.9",
      "depth": 1,
      "source": "builtin",
      "dependencies": {
        "com.unity.ugui": "1.0.0",
        "com.unity.modules.physics": "1.0.0",
        "com.unity.modules.terrain": "1.0.0",
        "com.unity.modules.jsonserialize": "1.0.0"
      }
    },
    "com.unity.render-pipelines.universal": {
      "version": "14.0.9",
      "depth": 0,
      "source": "builtin",
      "dependencies": {
        "com.unity.mathematics": "1.2.1",
        "com.unity.burst": "1.8.9",
        "com.unity.render-pipelines.core": "14.0.9",
        "com.unity.shadergraph": "14.0.9"
      }
    },
    "com.unity.scriptablebuildpipeline": {
      "version": "1.21.22",
      "depth": 1,
      "source": "registry",
      "dependencies": {},
      "url": "https://packages.unity.com"
    },
    "com.unity.searcher": {
      "version": "4.9.2",
      "depth": 2,
      "source": "registry",
      "dependencies": {},
      "url": "https://packages.unity.com"
    },
    "com.unity.shadergraph": {
      "version": "14.0.9",
      "depth": 1,
      "source": "builtin",
      "dependencies": {
        "com.unity.render-pipelines.core": "14.0.9",
        "com.unity.searcher": "4.9.2"
      }
    },
    "com.unity.sysroot": {
      "version": "2.0.7",
      "depth": 1,
      "source": "registry",
      "dependencies": {},
      "url": "https://packages.unity.com"
    },
    "com.unity.sysroot.linux-x86_64": {
      "version": "2.0.6",
      "depth": 1,
      "source": "registry",
      "dependencies": {
        "com.unity.sysroot": "2.0.7"
      },
      "url": "https://packages.unity.com"
    },
    "com.unity.test-framework": {
      "version": "1.3.5",
      "depth": 2,
      "source": "registry",
      "dependencies": {
        "com.unity.ext.nunit": "2.0.3",
        "com.unity.modules.imgui": "1.0.0",
        "com.unity.modules.jsonserialize": "1.0.0"
      },
      "url": "https://packages.unity.com"
    },
    "com.unity.test-framework.performance": {
      "version": "3.0.2",
      "depth": 1,
      "source": "registry",
      "dependencies": {
        "com.unity.test-framework": "1.1.31",
        "com.unity.modules.jsonserialize": "1.0.0"
      },
      "url": "https://packages.unity.com"
    },
    "com.unity.textmeshpro": {
      "version": "3.0.8",
      "depth": 0,
      "source": "registry",
      "dependencies": {
        "com.unity.ugui": "1.0.0"
      },
      "url": "https://packages.unity.com"
    },
    "com.unity.timeline": {
      "version": "1.7.6",
      "depth": 0,
      "source": "registry",
      "dependencies": {
        "com.unity.modules.director": "1.0.0",
        "com.unity.modules.animation": "1.0.0",
        "com.unity.modules.audio": "1.0.0",
        "com.unity.modules.particlesystem": "1.0.0"
      },
      "url": "https://packages.unity.com"
    },
    "com.unity.toolchain.win-x86_64-linux-x86_64": {
      "version": "2.0.6",
      "depth": 0,
      "source": "registry",
      "dependencies": {
        "com.unity.sysroot": "2.0.7",
        "com.unity.sysroot.linux-x86_64": "2.0.6"
      },
      "url": "https://packages.unity.com"
    },
    "com.unity.ugui": {
      "version": "1.0.0",
      "depth": 0,
      "source": "builtin",
      "dependencies": {
        "com.unity.modules.ui": "1.0.0",
        "com.unity.modules.imgui": "1.0.0"
      }
    },
    "com.unity.visualscripting": {
      "version": "1.9.1",
      "depth": 0,
      "source": "registry",
      "dependencies": {
        "com.unity.ugui": "1.0.0",
        "com.unity.modules.jsonserialize": "1.0.0"
      },
      "url": "https://packages.unity.com"
    },
    "com.utilities.async": {
      "version": "2.1.3",
      "depth": 1,
      "source": "registry",
      "dependencies": {
        "com.unity.editorcoroutines": "1.0.0",
        "com.unity.test-framework": "1.3.5",
        "com.unity.nuget.mono-cecil": "1.11.4"
      },
      "url": "https://package.openupm.com"
    },
    "com.utilities.extensions": {
      "version": "1.1.15",
      "depth": 1,
      "source": "registry",
      "dependencies": {
        "com.unity.modules.physics": "1.0.0",
        "com.unity.ugui": "1.0.0"
      },
      "url": "https://package.openupm.com"
    },
    "com.utilities.rest": {
      "version": "2.5.3",
      "depth": 0,
      "source": "registry",
      "dependencies": {
        "com.utilities.async": "2.1.3",
        "com.utilities.extensions": "1.1.15",
        "com.unity.modules.unitywebrequest": "1.0.0",
        "com.unity.modules.unitywebrequestassetbundle": "1.0.0",
        "com.unity.modules.unitywebrequestaudio": "1.0.0",
        "com.unity.modules.unitywebrequesttexture": "1.0.0",
        "com.unity.modules.unitywebrequestwww": "1.0.0",
        "com.unity.nuget.newtonsoft-json": "3.2.1"
      },
      "url": "https://package.openupm.com"
    },
    "com.unity.modules.ai": {
      "version": "1.0.0",
      "depth": 0,
      "source": "builtin",
      "dependencies": {}
    },
    "com.unity.modules.androidjni": {
      "version": "1.0.0",
      "depth": 0,
      "source": "builtin",
      "dependencies": {}
    },
    "com.unity.modules.animation": {
      "version": "1.0.0",
      "depth": 0,
      "source": "builtin",
      "dependencies": {}
    },
    "com.unity.modules.assetbundle": {
      "version": "1.0.0",
      "depth": 0,
      "source": "builtin",
      "dependencies": {}
    },
    "com.unity.modules.audio": {
      "version": "1.0.0",
      "depth": 0,
      "source": "builtin",
      "dependencies": {}
    },
    "com.unity.modules.cloth": {
      "version": "1.0.0",
      "depth": 0,
      "source": "builtin",
      "dependencies": {
        "com.unity.modules.physics": "1.0.0"
      }
    },
    "com.unity.modules.director": {
      "version": "1.0.0",
      "depth": 0,
      "source": "builtin",
      "dependencies": {
        "com.unity.modules.audio": "1.0.0",
        "com.unity.modules.animation": "1.0.0"
      }
    },
    "com.unity.modules.imageconversion": {
      "version": "1.0.0",
      "depth": 0,
      "source": "builtin",
      "dependencies": {}
    },
    "com.unity.modules.imgui": {
      "version": "1.0.0",
      "depth": 0,
      "source": "builtin",
      "dependencies": {}
    },
    "com.unity.modules.jsonserialize": {
      "version": "1.0.0",
      "depth": 0,
      "source": "builtin",
      "dependencies": {}
    },
    "com.unity.modules.particlesystem": {
      "version": "1.0.0",
      "depth": 0,
      "source": "builtin",
      "dependencies": {}
    },
    "com.unity.modules.physics": {
      "version": "1.0.0",
      "depth": 0,
      "source": "builtin",
      "dependencies": {}
    },
    "com.unity.modules.physics2d": {
      "version": "1.0.0",
      "depth": 0,
      "source": "builtin",
      "dependencies": {}
    },
    "com.unity.modules.screencapture": {
      "version": "1.0.0",
      "depth": 0,
      "source": "builtin",
      "dependencies": {
        "com.unity.modules.imageconversion": "1.0.0"
      }
    },
    "com.unity.modules.subsystems": {
      "version": "1.0.0",
      "depth": 1,
      "source": "builtin",
      "dependencies": {
        "com.unity.modules.jsonserialize": "1.0.0"
      }
    },
    "com.unity.modules.terrain": {
      "version": "1.0.0",
      "depth": 0,
      "source": "builtin",
      "dependencies": {}
    },
    "com.unity.modules.terrainphysics": {
      "version": "1.0.0",
      "depth": 0,
      "source": "builtin",
      "dependencies": {
        "com.unity.modules.physics": "1.0.0",
        "com.unity.modules.terrain": "1.0.0"
      }
    },
    "com.unity.modules.tilemap": {
      "version": "1.0.0",
      "depth": 0,
      "source": "builtin",
      "dependencies": {
        "com.unity.modules.physics2d": "1.0.0"
      }
    },
    "com.unity.modules.ui": {
      "version": "1.0.0",
      "depth": 0,
      "source": "builtin",
      "dependencies": {}
    },
    "com.unity.modules.uielements": {
      "version": "1.0.0",
      "depth": 0,
      "source": "builtin",
      "dependencies": {
        "com.unity.modules.ui": "1.0.0",
        "com.unity.modules.imgui": "1.0.0",
        "com.unity.modules.jsonserialize": "1.0.0"
      }
    },
    "com.unity.modules.umbra": {
      "version": "1.0.0",
      "depth": 0,
      "source": "builtin",
      "dependencies": {}
    },
    "com.unity.modules.unityanalytics": {
      "version": "1.0.0",
      "depth": 0,
      "source": "builtin",
      "dependencies": {
        "com.unity.modules.unitywebrequest": "1.0.0",
        "com.unity.modules.jsonserialize": "1.0.0"
      }
    },
    "com.unity.modules.unitywebrequest": {
      "version": "1.0.0",
      "depth": 0,
      "source": "builtin",
      "dependencies": {}
    },
    "com.unity.modules.unitywebrequestassetbundle": {
      "version": "1.0.0",
      "depth": 0,
      "source": "builtin",
      "dependencies": {
        "com.unity.modules.assetbundle": "1.0.0",
        "com.unity.modules.unitywebrequest": "1.0.0"
      }
    },
    "com.unity.modules.unitywebrequestaudio": {
      "version": "1.0.0",
      "depth": 0,
      "source": "builtin",
      "dependencies": {
        "com.unity.modules.unitywebrequest": "1.0.0",
        "com.unity.modules.audio": "1.0.0"
      }
    },
    "com.unity.modules.unitywebrequesttexture": {
      "version": "1.0.0",
      "depth": 0,
      "source": "builtin",
      "dependencies": {
        "com.unity.modules.unitywebrequest": "1.0.0",
        "com.unity.modules.imageconversion": "1.0.0"
      }
    },
    "com.unity.modules.unitywebrequestwww": {
      "version": "1.0.0",
      "depth": 0,
      "source": "builtin",
      "dependencies": {
        "com.unity.modules.unitywebrequest": "1.0.0",
        "com.unity.modules.unitywebrequestassetbundle": "1.0.0",
        "com.unity.modules.unitywebrequestaudio": "1.0.0",
        "com.unity.modules.audio": "1.0.0",
        "com.unity.modules.assetbundle": "1.0.0",
        "com.unity.modules.imageconversion": "1.0.0"
      }
    },
    "com.unity.modules.vehicles": {
      "version": "1.0.0",
      "depth": 0,
      "source": "builtin",
      "dependencies": {
        "com.unity.modules.physics": "1.0.0"
      }
    },
    "com.unity.modules.video": {
      "version": "1.0.0",
      "depth": 0,
      "source": "builtin",
      "dependencies": {
        "com.unity.modules.audio": "1.0.0",
        "com.unity.modules.ui": "1.0.0",
        "com.unity.modules.unitywebrequest": "1.0.0"
      }
    },
    "com.unity.modules.vr": {
      "version": "1.0.0",
      "depth": 0,
      "source": "builtin",
      "dependencies": {
        "com.unity.modules.jsonserialize": "1.0.0",
        "com.unity.modules.physics": "1.0.0",
        "com.unity.modules.xr": "1.0.0"
      }
    },
    "com.unity.modules.wind": {
      "version": "1.0.0",
      "depth": 0,
      "source": "builtin",
      "dependencies": {}
    },
    "com.unity.modules.xr": {
      "version": "1.0.0",
      "depth": 0,
      "source": "builtin",
      "dependencies": {
        "com.unity.modules.physics": "1.0.0",
        "com.unity.modules.jsonserialize": "1.0.0",
        "com.unity.modules.subsystems": "1.0.0"
      }
    }
  }
}
